{
  "$schema": "../../../node_modules/@angular-devkit/schematics/collection-schema.json",
  "schematics": {
    "crud-store": {
      "description": "add crud store",
      "factory": "./crud-store/index#crudStore",
      "schema": "./crud-store/schema.json"
    },
    "crud-section": {
      "description": "add crud section",
      "factory": "./crud-section/index#crudSection",
      "schema": "./crud-section/schema.json"
    }
  }
}
